id;msisdn;comments
1;mobile Fish;Home Loan Account Table Computer
2;Trace;Savings Account alarm
3;Tasty Metal Bacon;red Chips Soap
4;Home Loan Account;web-readiness
5;Namibia;Steel zero administration
6;Multi-channelled Licensed;grey Cambridgeshire
7;Canyon HDD;Table Small Frozen Sausages Planner
8;envisioneer Music Public-key;infomediaries
9;Investment Account;Games Regional Digitized
10;copy convergence;Mayotte
